Exploratory Data Analysis
…
##      Ridge    Lasso Elastic.Net
## 1 11.42345 10.95943    13.15747

The Lasso model has the lowest mean square prediction error.

Orator: Alexander Pinder

Q1: What is the distribution of life expectancy across different countries?

LED.DATA.MAP <- LED.DATA %>% 
  filter(Year == 2015) %>%
  dplyr::select(Country, Lifeexpectancy)
LED.DATA.MAP

## # A tibble: 183 x 2
##    Country             Lifeexpectancy
##    <chr>                        <dbl>
##  1 Afghanistan                   65  
##  2 Albania                       77.8
##  3 Algeria                       75.6
##  4 Angola                        52.4
##  5 Antigua and Barbuda           76.4
##  6 Argentina                     76.3
##  7 Armenia                       74.8
##  8 Australia                     82.8
##  9 Austria                       81.5
## 10 Azerbaijan                    72.7
## # ... with 173 more rows
…
Deliverer: Alison Tedford

Q1: How has mean life expectancy changed over the past 15 years for developing vs developed countries?

q1.data <- LED.DATA %>% 
  filter(is.na(Lifeexpectancy) == FALSE) %>% #na value was causing part of graph to not show up 
  group_by(Status, Year) %>% 
  summarize( 
    mean = mean(Lifeexpectancy)
  )

print(q1.data)

## # A tibble: 32 x 3
## # Groups:   Status [2]
##    Status     Year  mean
##    <chr>     <dbl> <dbl>
##  1 Developed  2000  76.8
##  2 Developed  2001  77.1
##  3 Developed  2002  77.5
##  4 Developed  2003  77.9
##  5 Developed  2004  78.4
##  6 Developed  2005  78.6
##  7 Developed  2006  79.1
##  8 Developed  2007  79.3
##  9 Developed  2008  78.9
## 10 Developed  2009  79.6
## # ... with 22 more rows
…
